{
    "KPlugin": {
        "Authors": [
            {
                "Name": "Aleix Pol Gonzalez",
                "Name[ar]": "Aleix Pol Gonzalez",
                "Name[az]": "Aleix Pol Gonzalez",
                "Name[ca@valencia]": "Aleix Pol Gonzalez",
                "Name[ca]": "Aleix Pol Gonzalez",
                "Name[cs]": "Aleix Pol Gonzalez",
                "Name[de]": "Aleix Pol Gonzalez",
                "Name[el]": "Aleix Pol Gonzalez",
                "Name[en_GB]": "Aleix Pol Gonzalez",
                "Name[es]": "Aleix Pol Gonzalez",
                "Name[et]": "Aleix Pol Gonzalez",
                "Name[eu]": "Aleix Pol Gonzalez",
                "Name[fi]": "Aleix Pol Gonzalez",
                "Name[fr]": "Aleix Pol Gonzalez",
                "Name[gl]": "Aleix Pol Gonzalez",
                "Name[it]": "Aleix Pol Gonzalez",
                "Name[ko]": "Aleix Pol Gonzalez",
                "Name[nl]": "Aleix Pol Gonzalez",
                "Name[nn]": "Aleix Pol Gonzalez",
                "Name[pl]": "Aleix Pol Gonzalez",
                "Name[pt]": "Aleix Pol Gonzalez",
                "Name[pt_BR]": "Aleix Pol Gonzalez",
                "Name[ru]": "Aleix Pol Gonzalez",
                "Name[sk]": "Aleix Pol Gonzalez",
                "Name[sl]": "Aleix Pol Gonzalez",
                "Name[sv]": "Aleix Pol Gonzalez",
                "Name[tr]": "Aleix Pol Gonzalez",
                "Name[uk]": "Aleix Pol Gonzalez",
                "Name[x-test]": "xxAleix Pol Gonzalezxx",
                "Name[zh_CN]": "Aleix Pol Gonzalez"
            }
        ],
        "Description": "Lets you view a plasmoid",
        "Description[az]": "Plasmoiə baxmanıza imkan verir",
        "Description[bs]": "Omogućava da vidite plazmoid",
        "Description[ca@valencia]": "Vos permet veure un plasmoide",
        "Description[ca]": "Us permet veure un plasmoide",
        "Description[de]": "Zeigt ein Plasmoid an",
        "Description[el]": "Σας επιτρέπει να προβάλετε ένα πλασμοειδές",
        "Description[en_GB]": "Lets you view a plasmoid",
        "Description[es]": "Le permite ver un plasmoide",
        "Description[et]": "Võimaldab näha plasmoidi",
        "Description[eu]": "Plasmoid bat ikusten uzten dizu",
        "Description[fi]": "Mahdollistaa plasmoidin katselun",
        "Description[fr]": "Vous permet d'afficher un plasmoïde",
        "Description[gl]": "Permite ver un plasmoide.",
        "Description[it]": "Consente di visualizzare un plasmoide",
        "Description[ko]": "Plasmoid를 봅니다",
        "Description[nl]": "Laat u een plasmoid bekijken",
        "Description[pl]": "Pokazuje plazmoid",
        "Description[pt]": "Permite-lhe visualizar um plasmóide",
        "Description[pt_BR]": "Permite-lhe visualizar um plasmoide",
        "Description[sk]": "Umožní vám vidieť plazmoid",
        "Description[sl]": "Vam omogoča ogled plasmoida",
        "Description[sv]": "Låter dig visa en Plasmoid",
        "Description[tr]": "Bir plazmoid görüntülemenize izin verir",
        "Description[uk]": "Надає вам змогу переглядати роботу плазмоїдів",
        "Description[x-test]": "xxLets you view a plasmoidxx",
        "Description[zh_CN]": "让您查看一个 plasmoid",
        "Icon": "system-run",
        "Id": "kdevexecuteplasmoid",
        "License": "GPL",
        "Name": "Plasmoid Launcher",
        "Name[ar]": "مُطلق البلازمويد",
        "Name[az]": "Plasmoid başladıcı",
        "Name[bs]": "Pokretač plazmoida",
        "Name[ca@valencia]": "Llançador de plasmoide",
        "Name[ca]": "Llançador de plasmoide",
        "Name[cs]": "Spouštěč Plasmoidů",
        "Name[de]": "Plasmoid-Starter",
        "Name[el]": "Εκτελεστής πλασμοειδών",
        "Name[en_GB]": "Plasmoid Launcher",
        "Name[es]": "Lanzador de plasmoides",
        "Name[et]": "Plasmoidide käivitaja",
        "Name[eu]": "Plasmoid abiarazlea",
        "Name[fi]": "Plasmoidikäynnistin",
        "Name[fr]": "Lanceur Plasmoïde",
        "Name[gl]": "Iniciador de plasmoides",
        "Name[hu]": "Plasmoid indító",
        "Name[it]": "Lanciatore di plasmoidi",
        "Name[ko]": "Plasmoid 실행기",
        "Name[nl]": "Programmastarter van plasmoid",
        "Name[pl]": "Program uruchamiający plazmoid",
        "Name[pt]": "Lançamento de Plasmóides",
        "Name[pt_BR]": "Lançador de plasmoides",
        "Name[sk]": "Spúšťač plazmoidov",
        "Name[sl]": "Zaganjalnik plasmoidov",
        "Name[sv]": " Plasmoid-startprogram",
        "Name[tr]": "Plazmoid Başlatıcısı",
        "Name[uk]": "Засіб запуску плазмоїдів",
        "Name[x-test]": "xxPlasmoid Launcherxx",
        "Name[zh_CN]": "部件启动器"
    },
    "X-KDevelop-Category": "Global",
    "X-KDevelop-Interfaces": [
        "org.kdevelop.IExecutePlugin"
    ],
    "X-KDevelop-Mode": "NoGUI"
}
